[
  {
    "description": "获取微课列表",
    "request": {
      "uri": "/micro_classes"
    },
    "response": {
      "json": [
        {
          "id": 1,
          "uri": "/micro_classes/1"
        },
        {
          "id": 2,
          "uri": "/micro_classes/2"
        },
        {
          "id": 3,
          "uri": "/micro_classes/3"
        },
        {
          "id": 4,
          "uri": "/micro_classes/4"
        }
      ]
    }
  },
  {
    "description": "获取一个微课",
    "request": {
      "uri": "/micro_classes/1"
    },
    "response": {
      "json": {
        "id": 1,
        "subject": "如何写React Native",
        "images": "/images/001.png",
        "expert": {
          "id": 1,
          "uri": "/experts/1"
        },
        "domains": [
          {
            "id": 1,
            "uri": "/domains/1"
          },
          {
            "id": 2,
            "uri": "/domains/2"
          }
        ]
      }
    }
  },
  {
    "description": "获取推荐微课列表",
    "request": {
      "uri": "/micro_classes",
      "queries": {
        "recommend": "true"
      }
    },
    "response": {
      "json": [
        {
          "id": 1,
          "uri": "/micro_classes/1"
        },
        {
          "id": 2,
          "uri": "/micro_classes/2"
        },
        {
          "id": 3,
          "uri": "/micro_classes/3"
        },
        {
          "id": 4,
          "uri": "/micro_classes/4"
        }
      ]
    }
  },
  {
    "description": "根据ID获取微课列表",
    "request": {
      "uri": "/micro_classes/1,2"
    },
    "response": {
      "json": [
        {
          "id": 1,
          "subject": "如何写React Native",
          "images": "/images/001.png",
          "expert": {
            "id": 1,
            "uri": "/experts/1"
          },
          "domains": [
            {
              "id": 1,
              "uri": "/domains/1"
            },
            {
              "id": 2,
              "uri": "/domains/2"
            }
          ]
        },
        {
          "id": 2,
          "subject": "如何写React Native",
          "images": "/images/001.png",
          "expert": {
            "id": 1,
            "uri": "/experts/1"
          },
          "domains": [
            {
              "id": 1,
              "uri": "/domains/1"
            },
            {
              "id": 2,
              "uri": "/domains/2"
            }
          ]
        }
      ]
    }
  }
]